{
"__comment": "Designed by Tomaxed44 with BDcraft Cubik PRO 0.95 Beta - http://bdcraft.net",
"textures": {
	"particle": "blocks/glass_pane_top_orange",
    "texture": "art/wall4"
},
"elements": [ 
{
    "from": [ -16, -16, 15.9375 ],
    "to": [ 32, 32, 16 ],
    "faces": {
        "north": { "uv": [ 0, 0, 16, 16 ], "texture": "#texture" }
    }
}
]
}