{
"__comment": "Designed by tomaxed with Cubik",
"textures": {
    "particle": "blocks/waterlily",
    "texture": "blocks/waterlily"
},
"elements": [ 
{
    "from": [ 0, -0.0625, 0 ],
    "to": [ 16, 0, 16 ],
    "faces": {
        "down":  { "uv": [ 0, 16, 16, 0 ], "texture": "#texture"},
        "up":    { "uv": [ 0, 0, 16, 16 ], "texture": "#texture"}
    }
}
]
}